[n122][[48774,1],0][btl_openib_component.c:1649:init_one_device] error obtaining device attributes for mlx5_0 errno says Protocol not supported
[n122][[48774,1],1][btl_openib_component.c:1649:init_one_device] error obtaining device attributes for mlx5_0 errno says Protocol not supported
[n122][[48774,1],2][btl_openib_component.c:1649:init_one_device] error obtaining device attributes for mlx5_0 errno says Protocol not supported
[n122][[48774,1],3][btl_openib_component.c:1649:init_one_device] error obtaining device attributes for mlx5_0 errno says Protocol not supported
[n122:38227] 3 more processes have sent help message help-mpi-btl-openib.txt / error in device init
[n122:38227] Set MCA parameter "orte_base_help_aggregate" to 0 to see all help / error messages

